💻🧰📊🥳 - Wrangling your data 🤠 Recitation Solutions
…
Calculating summaries

What country has the highest average happiness index in 2022?

# highest happiness is 2022
# note you can have columns that use non-standard R naming convention
# like here where columns are numbers
# but you need to refer to them surrounded by backticks
happiness |> 
  select(country, `2022`) |> 
  arrange(desc(`2022`))

# A tibble: 163 × 2
   country     `2022`
   <chr>        <dbl>
 1 Finland       78  
 2 Denmark       75.9
 3 Iceland       75.3
 4 Israel        74.7
 5 Netherlands   74  
 6 Sweden        74  
 7 Norway        73.2
 8 Switzerland   72.4
 9 Luxembourg    72.3
10 New Zealand   71.2
# ℹ 153 more rows

# or we could use clean_names
happiness |> 
  janitor::clean_names() |> 
  select(country, x2022) |> 
  arrange(desc(x2022))

# A tibble: 163 × 2
   country     x2022
   <chr>       <dbl>
 1 Finland      78  
 2 Denmark      75.9
 3 Iceland      75.3
 4 Israel       74.7
 5 Netherlands  74  
 6 Sweden       74  
 7 Norway       73.2
 8 Switzerland  72.4
 9 Luxembourg   72.3
10 New Zealand  71.2
# ℹ 153 more rows

What about overall average highest index?

# if you want to calculate and have missing values
# you need to remove them as the default is to not

# using select in rowMeans
happiness |> 
  mutate(mean_happiness = rowMeans(select(happiness, -country),
                                          na.rm = TRUE)) |> 
  arrange(desc(mean_happiness))

# A tibble: 163 × 20
   country `2005` `2006` `2007` `2008` `2009` `2010` `2011` `2012` `2013` `2014`
   <chr>    <dbl>  <dbl>  <dbl>  <dbl>  <dbl>  <dbl>  <dbl>  <dbl>  <dbl>  <dbl>
 1 Denmark   80.2   NA     78.3   79.7   76.8   77.7   77.9   75.2   75.9   75.1
 2 Finland   NA     76.7   NA     76.7   NA     73.9   73.5   74.2   74.5   73.8
 3 Switze…   NA     74.7   NA     NA     75.3   NA     NA     77.8   NA     74.9
 4 Norway    NA     74.2   NA     76.3   NA     NA     NA     76.8   NA     74.4
 5 Iceland   NA     NA     NA     68.9   NA     NA     NA     75.9   75     NA  
 6 Nether…   74.6   NA     74.5   76.3   NA     75     75.6   74.7   74.1   73.2
 7 Sweden    73.8   NA     72.4   75.2   72.7   75     73.8   75.6   74.3   72.4
 8 Canada    74.2   NA     74.8   74.9   74.9   76.5   74.3   74.2   75.9   73  
 9 New Ze…   NA     73     76     73.8   NA     72.2   71.9   72.5   72.8   73.1
10 Austra…   73.4   NA     72.8   72.5   NA     74.5   74.1   72     73.6   72.9
# ℹ 153 more rows
# ℹ 9 more variables: `2015` <dbl>, `2016` <dbl>, `2017` <dbl>, `2018` <dbl>,
#   `2019` <dbl>, `2020` <dbl>, `2021` <dbl>, `2022` <dbl>,
#   mean_happiness <dbl>
…
# using indexing in rowMeans
happiness |> 
  mutate(mean_happiness = rowMeans(happiness[-1], na.rm = TRUE)) |> 
  arrange(desc(mean_happiness)) |> 
  select(country, mean_happiness, everything())

# A tibble: 163 × 20
   country     mean_happiness `2005` `2006` `2007` `2008` `2009` `2010` `2011`
   <chr>                <dbl>  <dbl>  <dbl>  <dbl>  <dbl>  <dbl>  <dbl>  <dbl>
 1 Denmark               76.8   80.2   NA     78.3   79.7   76.8   77.7   77.9
 2 Finland               76.2   NA     76.7   NA     76.7   NA     73.9   73.5
 3 Switzerland           75.0   NA     74.7   NA     NA     75.3   NA     NA  
 4 Norway                74.8   NA     74.2   NA     76.3   NA     NA     NA  
 5 Iceland               74.7   NA     NA     NA     68.9   NA     NA     NA  
 6 Netherlands           74.5   74.6   NA     74.5   76.3   NA     75     75.6
 7 Sweden                73.8   73.8   NA     72.4   75.2   72.7   75     73.8
 8 Canada                73.3   74.2   NA     74.8   74.9   74.9   76.5   74.3
 9 New Zealand           72.9   NA     73     76     73.8   NA     72.2   71.9
10 Australia             72.6   73.4   NA     72.8   72.5   NA     74.5   74.1
# ℹ 153 more rows
# ℹ 11 more variables: `2012` <dbl>, `2013` <dbl>, `2014` <dbl>, `2015` <dbl>,
#   `2016` <dbl>, `2017` <dbl>, `2018` <dbl>, `2019` <dbl>, `2020` <dbl>,
#   `2021` <dbl>, `2022` <dbl>

# pivoting and then calculating mean after group_by country
happiness_long |> 
  group_by(country) |> 
  summarize(mean_happiness = mean(happy_value, na.rm = TRUE)) |> 
  arrange(desc(mean_happiness))

# A tibble: 163 × 2
   country     mean_happiness
   <chr>                <dbl>
 1 Denmark               76.8
 2 Finland               76.2
 3 Switzerland           75.0
 4 Norway                74.8
 5 Iceland               74.7
 6 Netherlands           74.5
 7 Sweden                73.8
 8 Canada                73.3
 9 New Zealand           72.9
10 Australia             72.6
# ℹ 153 more rows

How many countries had an average life expectancy over 80 years in 2022?

# with long data
# to see what the countries are
life_expectancy_long |> # long data
  filter(year == 2022) |>  # only 2022
  filter(life_exp > 80) # filter for over 80 years

# A tibble: 36 × 3
   country     year  life_exp
   <chr>       <chr>    <dbl>
 1 Australia   2022      83.3
 2 Austria     2022      82.6
 3 Belgium     2022      81.9
 4 Canada      2022      82.6
 5 Switzerland 2022      84.4
 6 Chile       2022      80.6
 7 Colombia    2022      80.7
 8 Costa Rica  2022      80.6
 9 Cyprus      2022      81.3
10 Germany     2022      81.7
# ℹ 26 more rows
# to see how many there are
life_expectancy_long |> 
  filter(year == 2022) |> 
  filter(life_exp > 80) |> 
  nrow() # counts rows

[1] 36

# with wide data
# to see what the countries are
life_expectancy |> 
  select(country, `2022`) |> # pick the columns country and 2022
  filter(`2022` > 80) # filter for 2022 > 80

# A tibble: 36 × 2
   country     `2022`
   <chr>        <dbl>
 1 Australia     83.3
 2 Austria       82.6
 3 Belgium       81.9
 4 Canada        82.6
 5 Switzerland   84.4
 6 Chile         80.6
 7 Colombia      80.7
 8 Costa Rica    80.6
 9 Cyprus        81.3
10 Germany       81.7
# ℹ 26 more rows
…
Which country has had their happiness index increase the most from 2012 to 2022? Which dropped the most?

happiness |> 
  mutate(change_2022_2012 = `2022` - `2012`) |> 
  select(country, change_2022_2012) |> 
  arrange(desc(change_2022_2012))

# A tibble: 163 × 2
   country     change_2022_2012
   <chr>                  <dbl>
 1 Guinea                  14.2
 2 Honduras                14.2
 3 Romania                 14.2
 4 Hungary                 13.6
 5 Congo, Rep.             13.5
 6 Bulgaria                12.5
 7 Benin                   11.8
 8 Senegal                 11.8
 9 Bahrain                 11.4
10 Nepal                   11.3
# ℹ 153 more rows

happiness |> 
  mutate(change_2022_2012 = `2022` - `2012`) |> 
  select(country, change_2022_2012) |> 
  arrange(change_2022_2012)

# A tibble: 163 × 2
   country          change_2022_2012
   <chr>                       <dbl>
 1 Lebanon                     -21.8
 2 Afghanistan                 -19.2
 3 Venezuela                   -18.6
 4 Zimbabwe                    -17.5
 5 Congo, Dem. Rep.            -14.3
 6 Botswana                    -14  
 7 Zambia                      -10.3
 8 Jordan                      -10.1
 9 Mexico                       -9.9
10 Malawi                       -7.8
# ℹ 153 more rows
…
