💻🧰📊🥳 - Wrangling your data 🤠, the basics
…
Often you will want to pick only certain columns in your dataframe, and you can do this with the function select(). You can pick columns by:

their names

their position (i.e., index)

characteristics of that column

Let’s select first by name.

diamonds |> 
  select(carat, cut, price)

# A tibble: 53,940 × 3
   carat cut       price
   <dbl> <ord>     <int>
 1  0.23 Ideal       326
 2  0.21 Premium     326
 3  0.23 Good        327
 4  0.29 Premium     334
 5  0.31 Good        335
 6  0.24 Very Good   336
 7  0.24 Very Good   336
 8  0.26 Very Good   337
 9  0.22 Fair        337
10  0.23 Very Good   338
# ℹ 53,930 more rows

Note that when you use the pipe, the potential column names will autofill for you after you type 3 letters. You can also hit tab to scroll through all the potential objects to select.

We can also select by index. In general I would recommend against this because its really hard to remember which column indices are which variables today, nevermind returning back to old code 1 year from now.

diamonds |> 
  select(c(1, 2, 7)) # you could also use the colon syntax if your columns are sequential

# A tibble: 53,940 × 3
   carat cut       price
   <dbl> <ord>     <int>
 1  0.23 Ideal       326
 2  0.21 Premium     326
 3  0.23 Good        327
 4  0.29 Premium     334
 5  0.31 Good        335
 6  0.24 Very Good   336
 7  0.24 Very Good   336
 8  0.26 Very Good   337
 9  0.22 Fair        337
10  0.23 Very Good   338
# ℹ 53,930 more rows
…
everything(): picks all variables

starts_with(): starts with some prefix

contains(): contains a specific string

where(): selects columns where the statement given in the argument is TRUE

Here is an example of using where() to select only the columns that are numeric.

diamonds |> 
  select(where(is.numeric))

# A tibble: 53,940 × 7
   carat depth table price     x     y     z
   <dbl> <dbl> <dbl> <int> <dbl> <dbl> <dbl>
 1  0.23  61.5    55   326  3.95  3.98  2.43
 2  0.21  59.8    61   326  3.89  3.84  2.31
 3  0.23  56.9    65   327  4.05  4.07  2.31
 4  0.29  62.4    58   334  4.2   4.23  2.63
 5  0.31  63.3    58   335  4.34  4.35  2.75
 6  0.24  62.8    57   336  3.94  3.96  2.48
 7  0.24  62.3    57   336  3.95  3.98  2.47
 8  0.26  61.9    55   337  4.07  4.11  2.53
 9  0.22  65.1    61   337  3.87  3.78  2.49
10  0.23  59.4    61   338  4     4.05  2.39
# ℹ 53,930 more rows
…
Figure from Allison Horst

Sometimes you want to select observations (rows) based on values. To do this you use filter(). Try not to confuse this with select().

select() picks columns, while filter() picks rows.

The function filter() will keep only observations that meet your filtering criteria.

Let’s say we want to only keep the diamonds that are bigger than 3 carats.

diamonds |> 
  filter(carat > 3)

# A tibble: 32 × 10
   carat cut     color clarity depth table price     x     y     z
   <dbl> <ord>   <ord> <ord>   <dbl> <dbl> <int> <dbl> <dbl> <dbl>
 1  3.01 Premium I     I1       62.7    58  8040  9.1   8.97  5.67
 2  3.11 Fair    J     I1       65.9    57  9823  9.15  9.02  5.98
 3  3.01 Premium F     I1       62.2    56  9925  9.24  9.13  5.73
 4  3.05 Premium E     I1       60.9    58 10453  9.26  9.25  5.66
 5  3.02 Fair    I     I1       65.2    56 10577  9.11  9.02  5.91
 6  3.01 Fair    H     I1       56.1    62 10761  9.54  9.38  5.31
 7  3.65 Fair    H     I1       67.1    53 11668  9.53  9.48  6.38
 8  3.24 Premium H     I1       62.1    58 12300  9.44  9.4   5.85
 9  3.22 Ideal   I     I1       62.6    55 12545  9.49  9.42  5.92
10  3.5  Ideal   H     I1       62.8    57 12587  9.65  9.59  6.03
# ℹ 22 more rows
…
Figure from Allison Horst

Sometimes you want to make new columns based on existing variables and you can do this with mutate().

For example, we might want to create a new column called “price_per_carat” which we calculate by taking price and divide it by carat. Keep in mind this would be an easy way to log transform data.

diamonds |> 
  mutate(price_per_carat = price/carat)

# A tibble: 53,940 × 11
   carat cut   color clarity depth table price     x     y     z price_per_carat
   <dbl> <ord> <ord> <ord>   <dbl> <dbl> <int> <dbl> <dbl> <dbl>           <dbl>
 1  0.23 Ideal E     SI2      61.5    55   326  3.95  3.98  2.43           1417.
 2  0.21 Prem… E     SI1      59.8    61   326  3.89  3.84  2.31           1552.
 3  0.23 Good  E     VS1      56.9    65   327  4.05  4.07  2.31           1422.
 4  0.29 Prem… I     VS2      62.4    58   334  4.2   4.23  2.63           1152.
 5  0.31 Good  J     SI2      63.3    58   335  4.34  4.35  2.75           1081.
 6  0.24 Very… J     VVS2     62.8    57   336  3.94  3.96  2.48           1400 
 7  0.24 Very… I     VVS1     62.3    57   336  3.95  3.98  2.47           1400 
 8  0.26 Very… H     SI1      61.9    55   337  4.07  4.11  2.53           1296.
 9  0.22 Fair  E     VS2      65.1    61   337  3.87  3.78  2.49           1532.
10  0.23 Very… H     VS1      59.4    61   338  4     4.05  2.39           1470.
# ℹ 53,930 more rows

Mutated columns are by default put at the end of the dataframe. We can reorder simply using select().

diamonds |> 
  mutate(price_per_carat = price/carat) |> 
  select(price_per_carat, everything()) # put new column first, then everything

# A tibble: 53,940 × 11
   price_per_carat carat cut   color clarity depth table price     x     y     z
             <dbl> <dbl> <ord> <ord> <ord>   <dbl> <dbl> <int> <dbl> <dbl> <dbl>
 1           1417.  0.23 Ideal E     SI2      61.5    55   326  3.95  3.98  2.43
 2           1552.  0.21 Prem… E     SI1      59.8    61   326  3.89  3.84  2.31
 3           1422.  0.23 Good  E     VS1      56.9    65   327  4.05  4.07  2.31
 4           1152.  0.29 Prem… I     VS2      62.4    58   334  4.2   4.23  2.63
 5           1081.  0.31 Good  J     SI2      63.3    58   335  4.34  4.35  2.75
 6           1400   0.24 Very… J     VVS2     62.8    57   336  3.94  3.96  2.48
 7           1400   0.24 Very… I     VVS1     62.3    57   336  3.95  3.98  2.47
 8           1296.  0.26 Very… H     SI1      61.9    55   337  4.07  4.11  2.53
 9           1532.  0.22 Fair  E     VS2      65.1    61   337  3.87  3.78  2.49
10           1470.  0.23 Very… H     VS1      59.4    61   338  4     4.05  2.39
# ℹ 53,930 more rows

You can also make new columns using conditional statements. For example, what if we want to create a new column that tells us if a diamond is more than $1000 called “at_least_1000”. We will do this using if_else().

diamonds |> 
  mutate(at_least_1000 = if_else(condition = price >= 1000,
                                  true = "$1000 or more",
                                  false = "less than $1000")) |> 
  select(at_least_1000, everything()) # move to front so we can see it

# A tibble: 53,940 × 11
   at_least_1000   carat cut   color clarity depth table price     x     y     z
   <chr>           <dbl> <ord> <ord> <ord>   <dbl> <dbl> <int> <dbl> <dbl> <dbl>
 1 less than $1000  0.23 Ideal E     SI2      61.5    55   326  3.95  3.98  2.43
 2 less than $1000  0.21 Prem… E     SI1      59.8    61   326  3.89  3.84  2.31
 3 less than $1000  0.23 Good  E     VS1      56.9    65   327  4.05  4.07  2.31
 4 less than $1000  0.29 Prem… I     VS2      62.4    58   334  4.2   4.23  2.63
 5 less than $1000  0.31 Good  J     SI2      63.3    58   335  4.34  4.35  2.75
 6 less than $1000  0.24 Very… J     VVS2     62.8    57   336  3.94  3.96  2.48
 7 less than $1000  0.24 Very… I     VVS1     62.3    57   336  3.95  3.98  2.47
 8 less than $1000  0.26 Very… H     SI1      61.9    55   337  4.07  4.11  2.53
 9 less than $1000  0.22 Fair  E     VS2      65.1    61   337  3.87  3.78  2.49
10 less than $1000  0.23 Very… H     VS1      59.4    61   338  4     4.05  2.39
# ℹ 53,930 more rows

If you have more than two conditions, you can use case_when().

If you use mutate() to create a new column that has the same name as an existing column, it will override that current column.

You can find other mutate() helpers here.

Sorting with arrange()

Sometimes you just want to see a dataframe ordered by a particular column. We can do that easily with arrange().

diamonds |> 
  arrange(price)

# A tibble: 53,940 × 10
   carat cut       color clarity depth table price     x     y     z
   <dbl> <ord>     <ord> <ord>   <dbl> <dbl> <int> <dbl> <dbl> <dbl>
 1  0.23 Ideal     E     SI2      61.5    55   326  3.95  3.98  2.43
 2  0.21 Premium   E     SI1      59.8    61   326  3.89  3.84  2.31
 3  0.23 Good      E     VS1      56.9    65   327  4.05  4.07  2.31
 4  0.29 Premium   I     VS2      62.4    58   334  4.2   4.23  2.63
 5  0.31 Good      J     SI2      63.3    58   335  4.34  4.35  2.75
 6  0.24 Very Good J     VVS2     62.8    57   336  3.94  3.96  2.48
 7  0.24 Very Good I     VVS1     62.3    57   336  3.95  3.98  2.47
 8  0.26 Very Good H     SI1      61.9    55   337  4.07  4.11  2.53
 9  0.22 Fair      E     VS2      65.1    61   337  3.87  3.78  2.49
10  0.23 Very Good H     VS1      59.4    61   338  4     4.05  2.39
# ℹ 53,930 more rows

By default, arrange() sorts from smallest to largest. We can change that if that’s what we want.

# these are the same
diamonds |> 
  arrange(-price)

# A tibble: 53,940 × 10
   carat cut       color clarity depth table price     x     y     z
   <dbl> <ord>     <ord> <ord>   <dbl> <dbl> <int> <dbl> <dbl> <dbl>
 1  2.29 Premium   I     VS2      60.8    60 18823  8.5   8.47  5.16
 2  2    Very Good G     SI1      63.5    56 18818  7.9   7.97  5.04
 3  1.51 Ideal     G     IF       61.7    55 18806  7.37  7.41  4.56
 4  2.07 Ideal     G     SI2      62.5    55 18804  8.2   8.13  5.11
 5  2    Very Good H     SI1      62.8    57 18803  7.95  8     5.01
 6  2.29 Premium   I     SI1      61.8    59 18797  8.52  8.45  5.24
 7  2.04 Premium   H     SI1      58.1    60 18795  8.37  8.28  4.84
 8  2    Premium   I     VS1      60.8    59 18795  8.13  8.02  4.91
 9  1.71 Premium   F     VS2      62.3    59 18791  7.57  7.53  4.7 
10  2.15 Ideal     G     SI2      62.6    54 18791  8.29  8.35  5.21
# ℹ 53,930 more rows

diamonds |> 
  arrange(desc(price))

# A tibble: 53,940 × 10
   carat cut       color clarity depth table price     x     y     z
   <dbl> <ord>     <ord> <ord>   <dbl> <dbl> <int> <dbl> <dbl> <dbl>
 1  2.29 Premium   I     VS2      60.8    60 18823  8.5   8.47  5.16
 2  2    Very Good G     SI1      63.5    56 18818  7.9   7.97  5.04
 3  1.51 Ideal     G     IF       61.7    55 18806  7.37  7.41  4.56
 4  2.07 Ideal     G     SI2      62.5    55 18804  8.2   8.13  5.11
 5  2    Very Good H     SI1      62.8    57 18803  7.95  8     5.01
 6  2.29 Premium   I     SI1      61.8    59 18797  8.52  8.45  5.24
 7  2.04 Premium   H     SI1      58.1    60 18795  8.37  8.28  4.84
 8  2    Premium   I     VS1      60.8    59 18795  8.13  8.02  4.91
 9  1.71 Premium   F     VS2      62.3    59 18791  7.57  7.53  4.7 
10  2.15 Ideal     G     SI2      62.6    54 18791  8.29  8.35  5.21
# ℹ 53,930 more rows
…
Figure from Allison Horst

This is easier to “see” 👀 than to explain. Here is an example of non-tidy data, where there is data embedded in column names, and one variable (the rank of a song) is spread across many columns:

billboard

# A tibble: 317 × 79
   artist     track date.entered   wk1   wk2   wk3   wk4   wk5   wk6   wk7   wk8
   <chr>      <chr> <date>       <dbl> <dbl> <dbl> <dbl> <dbl> <dbl> <dbl> <dbl>
 1 2 Pac      Baby… 2000-02-26      87    82    72    77    87    94    99    NA
 2 2Ge+her    The … 2000-09-02      91    87    92    NA    NA    NA    NA    NA
 3 3 Doors D… Kryp… 2000-04-08      81    70    68    67    66    57    54    53
 4 3 Doors D… Loser 2000-10-21      76    76    72    69    67    65    55    59
 5 504 Boyz   Wobb… 2000-04-15      57    34    25    17    17    31    36    49
 6 98^0       Give… 2000-08-19      51    39    34    26    26    19     2     2
 7 A*Teens    Danc… 2000-07-08      97    97    96    95   100    NA    NA    NA
 8 Aaliyah    I Do… 2000-01-29      84    62    51    41    38    35    35    38
 9 Aaliyah    Try … 2000-03-18      59    53    38    28    21    18    16    14
10 Adams, Yo… Open… 2000-08-26      76    76    74    69    68    67    61    58
# ℹ 307 more rows
# ℹ 68 more variables: wk9 <dbl>, wk10 <dbl>, wk11 <dbl>, wk12 <dbl>,
#   wk13 <dbl>, wk14 <dbl>, wk15 <dbl>, wk16 <dbl>, wk17 <dbl>, wk18 <dbl>,
#   wk19 <dbl>, wk20 <dbl>, wk21 <dbl>, wk22 <dbl>, wk23 <dbl>, wk24 <dbl>,
#   wk25 <dbl>, wk26 <dbl>, wk27 <dbl>, wk28 <dbl>, wk29 <dbl>, wk30 <dbl>,
#   wk31 <dbl>, wk32 <dbl>, wk33 <dbl>, wk34 <dbl>, wk35 <dbl>, wk36 <dbl>,
#   wk37 <dbl>, wk38 <dbl>, wk39 <dbl>, wk40 <dbl>, wk41 <dbl>, wk42 <dbl>, …

Here is an example of the same exact data, in a tidy format, where those data that used to be column names, are now values coded for a particular variable.

billboard_long <- billboard |> 
  pivot_longer(
    cols = starts_with("wk"), 
    names_to = "week", 
    values_to = "rank"
  )

billboard_long

# A tibble: 24,092 × 5
   artist track                   date.entered week   rank
   <chr>  <chr>                   <date>       <chr> <dbl>
 1 2 Pac  Baby Don't Cry (Keep... 2000-02-26   wk1      87
 2 2 Pac  Baby Don't Cry (Keep... 2000-02-26   wk2      82
 3 2 Pac  Baby Don't Cry (Keep... 2000-02-26   wk3      72
 4 2 Pac  Baby Don't Cry (Keep... 2000-02-26   wk4      77
 5 2 Pac  Baby Don't Cry (Keep... 2000-02-26   wk5      87
 6 2 Pac  Baby Don't Cry (Keep... 2000-02-26   wk6      94
 7 2 Pac  Baby Don't Cry (Keep... 2000-02-26   wk7      99
 8 2 Pac  Baby Don't Cry (Keep... 2000-02-26   wk8      NA
 9 2 Pac  Baby Don't Cry (Keep... 2000-02-26   wk9      NA
10 2 Pac  Baby Don't Cry (Keep... 2000-02-26   wk10     NA
# ℹ 24,082 more rows

We can go back from our new longer dataframe with pivot_wider().

billboard_long |> 
  pivot_wider(names_from = week,
              values_from = rank)

# A tibble: 317 × 79
   artist     track date.entered   wk1   wk2   wk3   wk4   wk5   wk6   wk7   wk8
   <chr>      <chr> <date>       <dbl> <dbl> <dbl> <dbl> <dbl> <dbl> <dbl> <dbl>
 1 2 Pac      Baby… 2000-02-26      87    82    72    77    87    94    99    NA
 2 2Ge+her    The … 2000-09-02      91    87    92    NA    NA    NA    NA    NA
 3 3 Doors D… Kryp… 2000-04-08      81    70    68    67    66    57    54    53
 4 3 Doors D… Loser 2000-10-21      76    76    72    69    67    65    55    59
 5 504 Boyz   Wobb… 2000-04-15      57    34    25    17    17    31    36    49
 6 98^0       Give… 2000-08-19      51    39    34    26    26    19     2     2
 7 A*Teens    Danc… 2000-07-08      97    97    96    95   100    NA    NA    NA
 8 Aaliyah    I Do… 2000-01-29      84    62    51    41    38    35    35    38
 9 Aaliyah    Try … 2000-03-18      59    53    38    28    21    18    16    14
10 Adams, Yo… Open… 2000-08-26      76    76    74    69    68    67    61    58
# ℹ 307 more rows
# ℹ 68 more variables: wk9 <dbl>, wk10 <dbl>, wk11 <dbl>, wk12 <dbl>,
#   wk13 <dbl>, wk14 <dbl>, wk15 <dbl>, wk16 <dbl>, wk17 <dbl>, wk18 <dbl>,
#   wk19 <dbl>, wk20 <dbl>, wk21 <dbl>, wk22 <dbl>, wk23 <dbl>, wk24 <dbl>,
#   wk25 <dbl>, wk26 <dbl>, wk27 <dbl>, wk28 <dbl>, wk29 <dbl>, wk30 <dbl>,
#   wk31 <dbl>, wk32 <dbl>, wk33 <dbl>, wk34 <dbl>, wk35 <dbl>, wk36 <dbl>,
#   wk37 <dbl>, wk38 <dbl>, wk39 <dbl>, wk40 <dbl>, wk41 <dbl>, wk42 <dbl>, …
…
