💻🧰📊🥳 - ggplot 101 recitation 🎃
…
Turn one character column into two ✂️

From both looking at the data, and reading about the variable id on the documentation page, you see that it contains two type of observations. Since we want to be able to filter for only Giant Pumpkins, and we will want to plot x = year we need to separate them.

To use them separately, we need to separate this column into two columns such like year and type.

Try doing this with the function separate() or separate_wider_delim(). I will show you both ways and then just use separate() for ther rest of the example.

pumpkins_raw |> 
  separate(col = id,
           into = c("year", "type"), # combine year and type as a vector
           sep = "-",
           remove = FALSE) # if you want to keep id, not required

# A tibble: 28,065 × 16
   id     year  type  place weight_lbs grower_name      city  state_prov country
   <chr>  <chr> <chr> <chr> <chr>      <chr>            <chr> <chr>      <chr>  
 1 2013-F 2013  F     1     154.50     Ellenbecker, To… Glea… Wisconsin  United…
 2 2013-F 2013  F     2     146.50     Razo, Steve      New … Ohio       United…
 3 2013-F 2013  F     3     145.00     Ellenbecker, To… Glen… Wisconsin  United…
 4 2013-F 2013  F     4     140.80     Martin, Margare… Comb… Wisconsin  United…
 5 2013-F 2013  F     5     139.00     Barlow, John     <NA>  Wisconsin  United…
 6 2013-F 2013  F     5     139.00     Werner, Quinn    Saeg… Pennsylva… United…
 7 2013-F 2013  F     7     136.50     Treece, Jef      West… Oregon     United…
 8 2013-F 2013  F     8     136.00     Werner, Quinn    Saeg… Pennsylva… United…
 9 2013-F 2013  F     9     134.50     Rose, Jerry      Hunt… Ohio       United…
10 2013-F 2013  F     10    134.00     Coolen, Russell  Bout… Nova Scot… Canada 
# ℹ 28,055 more rows
# ℹ 7 more variables: gpc_site <chr>, seed_mother <chr>,
#   pollinator_father <chr>, ott <chr>, est_weight <chr>, pct_chart <chr>,
#   variety <chr>

pumpkins_raw |> 
  separate_wider_delim(cols = id,
                       delim = "-", # delimiter is a hyphen
                       names = c("year", "type"), # combine year and type as a vector
                       cols_remove = FALSE) # to keep id, not required

# A tibble: 28,065 × 16
   year  type  id     place weight_lbs grower_name      city  state_prov country
   <chr> <chr> <chr>  <chr> <chr>      <chr>            <chr> <chr>      <chr>  
 1 2013  F     2013-F 1     154.50     Ellenbecker, To… Glea… Wisconsin  United…
 2 2013  F     2013-F 2     146.50     Razo, Steve      New … Ohio       United…
 3 2013  F     2013-F 3     145.00     Ellenbecker, To… Glen… Wisconsin  United…
 4 2013  F     2013-F 4     140.80     Martin, Margare… Comb… Wisconsin  United…
 5 2013  F     2013-F 5     139.00     Barlow, John     <NA>  Wisconsin  United…
 6 2013  F     2013-F 5     139.00     Werner, Quinn    Saeg… Pennsylva… United…
 7 2013  F     2013-F 7     136.50     Treece, Jef      West… Oregon     United…
 8 2013  F     2013-F 8     136.00     Werner, Quinn    Saeg… Pennsylva… United…
 9 2013  F     2013-F 9     134.50     Rose, Jerry      Hunt… Ohio       United…
10 2013  F     2013-F 10    134.00     Coolen, Russell  Bout… Nova Scot… Canada 
# ℹ 28,055 more rows
# ℹ 7 more variables: gpc_site <chr>, seed_mother <chr>,
#   pollinator_father <chr>, ott <chr>, est_weight <chr>, pct_chart <chr>,
#   variety <chr>
…
