Manhattan Plots Recitation Solutions – 💻🧰📊🥳
…
[1] 16470

How are the markers distributed across the chromosomes?

The function summarize() from dplyr is sometimes masked by another function. If you have find you are getting an error when you call summarize() that says something like “argument”by” is missing, with no default” then specify explicitly that you want to use dplyr::summarize(). You could also use the British spelling summarise() and that also works. Here’s a stack overflow post where you can learn more.

gwasResults |>
  group_by(CHR) |>
  dplyr::summarize(min_bp = min(BP),
                   max_bp = max(BP),
                   number_of_markers = length(SNP))

# A tibble: 22 × 4
     CHR min_bp max_bp number_of_markers
   <int>  <int>  <int>             <int>
 1     1      1   1500              1500
 2     2      1   1191              1191
 3     3      1   1040              1040
 4     4      1    945               945
 5     5      1    877               877
 6     6      1    825               825
 7     7      1    784               784
 8     8      1    750               750
 9     9      1    721               721
10    10      1    696               696
# ℹ 12 more rows
…
range(gwasResults_neglog10$SNP_number)

[1]     1 16470

Set axis for plotting.

(set_axis <- gwasResults_neglog10 |>
  group_by(CHR) |>
  summarise(min = min(SNP_number),
            max = max(SNP_number),
            center = (max - min)/2))

# A tibble: 22 × 4
     CHR   min   max center
   <int> <dbl> <dbl>  <dbl>
 1     1     1  1500   750.
 2     2  1501  2691   595 
 3     3  2692  3731   520.
 4     4  3732  4676   472 
 5     5  4677  5553   438 
 6     6  5554  6378   412 
 7     7  6379  7162   392.
 8     8  7163  7912   374.
 9     9  7913  8633   360 
10    10  8634  9329   348.
# ℹ 12 more rows
…
