Manhattan Plots – 💻🧰📊🥳
…
[1] 544

There are 962 unique features/metabolite that have a Bonferroni adjusted significant p-value with at least one marker. There are 544 unique markers that have a Bonferroni adjusted significant p-value with at least one feature/metabolite.

Data investigating

What features are associated with the largest number of markers?

gwas_tidy_bonferroni %>%
  group_by(feature) %>%
  count() %>%
  arrange(desc(n))

# A tibble: 962 × 2
# Groups:   feature [962]
   feature                n
   <chr>              <int>
 1 X417.13237_1.82968    46
 2 X349.15073_1.79191    44
 3 X601.13217_2.40546    34
 4 X593.12835_2.53465    31
 5 X291.0768_2.44657     30
 6 X591.1485_2.86273     30
 7 X637.09169_2.78692    30
 8 X661.08791_2.10005    30
 9 X137.02484_2.44808    29
10 X561.13983_2.53357    29
# ℹ 952 more rows
…
Making many plots at once

What if we want to make Manhattan plots for the 50 features/metabolites that are associated with the most markers? This is probably too many plots to facet, so we can do some calculations, write a function to make plots, and apply it over our dataframe.

First, how many significant associations with a Bonferroni multiple testing correction are there?

# make df of associations that pass bonferroni correction
gwas_tidy_bonferroni <- gwas_tidy %>%
  filter(neg_log10_p > bonferroni_pval)

# how many unique features are this?
gwas_tidy_bonferroni %>%
  count(feature) 

# A tibble: 962 × 2
   feature                 n
   <chr>               <int>
 1 X1000.22158_2.71331    12
 2 X1000.72569_2.72017     2
 3 X1001.23392_2.70506     5
 4 X1008.71962_2.91507     3
 5 X1008.72084_2.64352     2
 6 X1009.22592_2.91262     5
 7 X1009.72353_2.64479     2
 8 X1010.22369_2.64604     2
 9 X1010.72865_2.64538     1
10 X1014.70219_2.12784     2
# ℹ 952 more rows

# how many unique markers are there?
gwas_tidy_bonferroni %>%
  count(Index) 

# A tibble: 544 × 2
   Index     n
   <dbl> <int>
 1   170     1
 2   217     1
 3   218     1
 4   233     2
 5   294     1
 6   311     1
 7   341     2
 8   368     1
 9   386     4
10   520     6
# ℹ 534 more rows

Which features are associated with the largest number of markers?

gwas_tidy_bonferroni %>%
  count(feature) %>%
  arrange(desc(n))

# A tibble: 962 × 2
   feature                n
   <chr>              <int>
 1 X417.13237_1.82968    46
 2 X349.15073_1.79191    44
 3 X601.13217_2.40546    34
 4 X593.12835_2.53465    31
 5 X291.0768_2.44657     30
 6 X591.1485_2.86273     30
 7 X637.09169_2.78692    30
 8 X661.08791_2.10005    30
 9 X137.02484_2.44808    29
10 X561.13983_2.53357    29
# ℹ 952 more rows

Which markers are associated with the largest number of features?

gwas_tidy_bonferroni %>%
  count(Index) %>%
  arrange(desc(n))

# A tibble: 544 × 2
   Index     n
   <dbl> <int>
 1 13684   320
 2 13685   318
 3 13681   317
 4 13715   298
 5 13657   223
 6 13660   223
 7 13675   221
 8 13630   219
 9 13623   199
10 13617   198
# ℹ 534 more rows
…
