💻🧰📊🥳 - Module 2 Assignment Solutions
…
# what are the options for Agricultural sciences and natural resources?
phd_field %>%
  filter(major_field == "Agricultural sciences and natural resources") %>%
  select(field) %>%
  unique()

# A tibble: 26 × 1
   field                                        
   <chr>                                        
 1 Agricultural economics                       
 2 Agricultural and horticultural plant breeding
 3 Agricultural animal breeding                 
 4 Agronomy and crop science                    
 5 Animal nutrition                             
 6 Animal science, poultry or avian             
 7 Animal sciences, other                       
 8 Environmental science                        
 9 Fishing and fisheries sciences and management
10 Food science                                 
# ℹ 16 more rows
…
